arithcmd.c	(arithcmd.h	debug.h errors.h	globvar.h	rpl.h	intcmd.h	stackcmd.h)
bincmd.c	(bincmd.h)
branchcm.c	(branchcm.h	debug.h errors.h	rpl.h	intcmd.h	misccmd.h	stackcmd.h)
cmplxcmd.c	(cmplxcmd.h	errors.h	globvar.h	rpl.h	intcmd.h	stackcmd.h)
debug.c 	(debug.h	rpl.h	errors.h)
errors.c	(errors.h	debug.h)
filecmd.c	(errors.h	filecmd.h	globvar.h	rpl.h	intcmd.h)
globvar.c	(arithcmd.h	branchcm.h	cmplxcmd.h	debug.h filecmd.h	globvar.h	rpl.h	logcmd.h	misccmd.h	relcmd.h	stackcmd.h	storecmd.h	trigcmd.h)
rpl.c		(debug.h	globvar.h	rpl.h	intcmd.h	parser.h)
intcmd.c	(debug.h	errors.h	rpl.h	globvar.h	intcmd.h	misccmd.h)
logcmd.c	(errors.h	globvar.h	rpl.h	intcmd.h	logcmd.h	stackcmd.h)
matherr.c
misccmd.c	(debug.h	errors.h	globvar.h	rpl.h	intcmd.h	misccmd.h	stackcmd.h)
parser.c	(debug.h	errors.h	globvar.h	intcmd.h	misccmd.h	parser.h	rpl.h)
realcmd.c	(realcmd.h	debug.h	errors.h	globvar.h	rpl.h	intcmd.h	stackcmd.h)
relcmd.c	(relcmd.h	debug.h	errors.h	globvar.h	rpl.h	intcmd.h	stackcmd.h)
stackcmd.c	(debug.h	errors.h	globvar.h	rpl.h	intcmd.h	stackcmd.h)
storecmd.c	(debug.h	errors.h	globvar.h	rpl.h	intcmd.h	stackcmd.h	storecmd.h)
trigcmd.c	(debug.h	errors.h	globvar.h	rpl.h	intcmd.h	stackcmd.h	trigcmd.h)

/tc/cprof/lprof.obj
